{ "members":
    [
        {"type": "Seller", "pw": "abcd", "companyName": "Phillip Capital Management Pte Ltd", "id": "Richard@phillip.pcm.com"},
        {"type": "Seller", "pw": "abcd", "companyName": "Phillip Capital Management Pte Ltd", "id": "Ben@phillip.pcm.com"},
        {"type": "Seller", "pw": "abcd", "companyName": "Schroder Investment Management (Singapore) Ltd", "id": "Basu@schroder.com"},
        {"type": "Seller", "pw": "abcd", "companyName": "UOB Asset Management Ltd", "id": "John@uobassetmgmt.com"},
        {"type": "Buyer", "pw": "abcd", "companyName": "ABC Trading Pte Ltd", "id": "Mark@abc.com"},
        {"type": "Buyer", "pw": "abcd", "companyName": "XYZ Trading Pte Ltd", "id": "Ella@xyz.com"},
        {"type": "Buyer", "pw": "abcd", "companyName": "Sun Trading Pte Ltd", "id": "Jacob@suntrading.com"},
        {"type": "Buyer", "pw": "abcd", "companyName": "Phillip Securities Pte Ltd", "id": "PSPL@phillip.com"}

    ],
    "items":
    [
        {"itemNo": 1, "itemDescription": "UOB United SGD Fund CL A (Acc)", "quantity": 1000, "unitPrice": 1.9100},
        {"itemNo": 2, "itemDescription": "Schroder ISF Euro Equity SGD Hedged A Acc", "quantity": 1000, "unitPrice": 100.81},
        {"itemNo": 3, "itemDescription": "Schroder ISF Euro Equity A Acc EUR", "quantity": 1000, "unitPrice": 36.96},
        {"itemNo": 4, "itemDescription": "Allianz Global Twin-Focus Fund", "quantity": 1000, "unitPrice": 0.3578},
        {"itemNo": 5, "itemDescription": "Allianz GIF China Strategic Bond", "quantity": 1000, "unitPrice": 9.51}
    ],
    "assets":
    [   
        {"type": "Order", "id": "001", "buyer": "Mark@abc.com", "seller": "John@uobassetmgmt.com", "items": [{"itemNo": 1, "quantity": 1}, {"itemNo": 1, "quantity": 2}, {"itemNo": 1, "quantity": 2}] },
        {"type": "Order", "id": "002", "buyer": "Ella@xyz.com", "seller": "Basu@schroder.com", "items": [{"itemNo": 2, "quantity": 3}, {"itemNo": 4, "quantity": 15}] },
        {"type": "Order", "id": "003", "buyer": "Jacob@suntrading.com", "seller": "Richard@phillip.pcm.com", "items": [{"itemNo": 1, "quantity": 10}] }
    ]
}