{
    "fabric":
    {
        "user": "queryUser",
        "eventURL": "grpc://localhost:7053",
        "channelName": "composerchannel",
        "keyValStore": ".composer-credentials/PeerAdmin",
        "wallet_store": "creds",
        "peer": "peer0.org1.example.com",
        "peerRequestURL": "grpc://localhost:7051",
        "peerEventURL": "grpc://localhost:7053",
        "ordererURL" : "grpc://localhost:7050",
        "caURL": "http://localhost:7054"
    },
    "composer":
    {
        "connectionProfile": "hlfv1",
        "network": "zerotoblockchain-network",
        "adminID": "admin",
        "adminPW": "adminpw",
        "PeerAdmin": "PeerAdmin",
        "PeerPW": "randomString",
        "NS": "org.acme.Z2BTestNetwork",
        "adminCard": "admin@zerotoblockchain-network",
        "PeerCard": "PeerAdmin@hlfv1"
    },
    "metaData":
    { "version": 1,
        "userName": "temp",
        "roles": [ ],
        "businessNetwork":"",
        "enrollmentSecret": "temp"
    },
    "keyValStore": "/.composer-credentials",
    "kube_address":"169.46.111.109",
    "connectionProfile":
    {
        "name": "hlfv1",
        "x-type": "hlfv1",
        "orderers": [ { "url": "grpc://localhost:7050" } ],
        "ca": { "url": "http://localhost:7054", "name": "ca.org1.example.com" },
        "peers": [ { "requestURL": "grpc://localhost:7051", "eventURL": "grpc://localhost:7053" } ],
        "keyValStore": "/.composer-credentials",
        "channel": "composerchannel",
        "mspID": "Org1MSP",
        "timeout": 300 
    }
}